Team 14: East Kalimantan as the new J-Town
…
podes1_final %>%
  arrange(desc(`VILLAGE/SUBDISTRICT_BY_AREA_IN_ISLAND`))

## # A tibble: 384 x 49
##    SHAPE PROVINCE_ID PROVINCE CITY_ID CITY  DISTRICT_ID DISTRICT VILLAGE_ID
##    <dbl>       <dbl> <chr>    <chr>   <chr> <chr>       <chr>    <chr>     
##  1 62159          64 KALIMAN~ 03      KUTA~ 020         MUARA J~ 007       
##  2 62755          64 KALIMAN~ 71      BALI~ 050         BALIKPA~ 006       
##  3 62658          64 KALIMAN~ 09      PENA~ 040         SEPAKU   002       
##  4 62729          64 KALIMAN~ 71      BALI~ 011         BALIKPA~ 001       
##  5 62176          64 KALIMAN~ 03      KUTA~ 050         LOA KULU 003       
##  6 62284          64 KALIMAN~ 03      KUTA~ 130         MUARA B~ 001       
##  7 62232          64 KALIMAN~ 03      KUTA~ 090         TENGGAR~ 003       
##  8 62750          64 KALIMAN~ 71      BALI~ 050         BALIKPA~ 001       
##  9 62751          64 KALIMAN~ 71      BALI~ 050         BALIKPA~ 002       
## 10 62752          64 KALIMAN~ 71      BALI~ 050         BALIKPA~ 003       
## # ... with 374 more rows, and 41 more variables: VILLAGE <chr>,
## #   `VILLAGE/SUBDISTRICT` <fct>, `PRESENCE_VILLAGE/SUBDISTRICT_COUNCIL` <fct>,
## #   COUNCIL_MEMBER_NUM <dbl>, PRESENCE_VILLAGE_HEAD_OFFICE <fct>,
## #   STATUS_HEAD_OFFICE <fct>, CONDITION_HEAD_OFFICE <fct>,
## #   `VILLAGE/SUBDISTRICT_BY_AREA_IN_ISLAND` <dbl>,
## #   `VILLAGE/SUBDISTRICT_BY_TOPOGRAPHY` <fct>, VILLAGE_ADJACENT_TO_SEA <fct>,
## #   SEA_BENEFIT_FISHING <fct>, SEA_BENEFIT_FISH_FARMING <fct>,
## #   SEA_BENEFIT_SALTPOND <fct>, SEA_BENEFIT_MARINE_TOURISM <fct>,
## #   SEA_BENEFIT_PUBLIC_TRANSPORTATION <fct>, PRESENCE_MANGROVE_TREES <fct>,
…
